…
    ## Start:  AIC=60330.77
    ## Arrest ~ season + daytime + Domestic + `Primary Type` + `Location Description` + 
    ##     side
    ## 
    ##                          Df Deviance   AIC
    ## <none>                         60283 60331
    ## - Domestic                1    60285 60331
    ## - season                  3    60328 60370
    ## - daytime                 1    60346 60392
    ## - side                    8    60460 60492
    ## - `Location Description`  4    60882 60922
    ## - `Primary Type`          6    64769 64805

    ## # A tibble: 24 x 5
    ##    term                              estimate std.error statistic   p.value
    ##    <chr>                                <dbl>     <dbl>     <dbl>     <dbl>
    ##  1 (Intercept)                        -1.72      0.0636   -27.0   5.29e-161
    ##  2 seasonSpring                        0.0795    0.0299     2.66  7.82e-  3
    ##  3 seasonSummer                        0.0576    0.0292     1.97  4.87e-  2
    ##  4 seasonWinter                        0.224     0.0340     6.60  4.24e- 11
    ##  5 daytimeTRUE                        -0.170     0.0213    -7.98  1.43e- 15
    ##  6 DomesticTRUE                        0.0409    0.0248     1.65  9.91e-  2
    ##  7 `Primary Type`BATTERY               0.345     0.0311    11.1   1.07e- 28
    ##  8 `Primary Type`CRIM SEXUAL ASSAULT  -0.908     0.149     -6.09  1.11e-  9
    ##  9 `Primary Type`HOMICIDE             -0.114     0.155     -0.738 4.61e-  1
    ## 10 `Primary Type`OTHER OFFENSE         0.418     0.0362    11.6   6.17e- 31
    ## # ... with 14 more rows
…
